{
  "file_generated_by": "FlutterFire CLI",
  "purpose": "FirebaseAppID & ProjectID for this Firebase app in this directory",
  "GOOGLE_APP_ID": "1:468125957675:ios:1150c22fb53411cca4f46e",
  "FIREBASE_PROJECT_ID": "prakppbflutterfirebase",
  "GCM_SENDER_ID": "468125957675"
}